id,name,model_id:id,group_id:id,perm_read,perm_write,perm_create,perm_unlink
customer_discount_tier_partner,customer_discount_tier_partner,model_res_partner_tier,base.group_user,1,0,0,0
customer_discount_tier_system,customer_discount_tier_system,model_res_partner_tier,base.group_system,1,1,1,1
customer_discount_tier_billing_admin,customer_discount_tier_billing_admin,model_res_partner_tier,base.group_system,1,1,1,1
customer_discount_tier_portal,customer_discount_tier_portal,model_res_partner_tier,base.group_portal,1,0,0,0
